[gd_scene load_steps=2 format=2]

[ext_resource path="res://TickTimer.gd" type="Script" id=1]

[node name="TickTimer" type="Timer"]
script = ExtResource( 1 )

[connection signal="timeout" from="." to="." method="_on_TickTimer_timeout"]
